…
708 rows, 1074 cols, 43896 nonzeros
Presolve : Reductions: rows 708(-924); columns 1074(-36); elements 43896(-2362)
Solving the presolved LP
Using EKK dual simplex solver - serial
  Iteration        Objective     Infeasibilities num(sum)
          0    -4.3502751027e+03 Pr: 708(173423); Du: 0(3.31781e-09) 0s
        706    -4.3500000000e+03 Pr: 0(0) 0s
Solving the original LP from the solution after postsolve
Model   status      : Optimal
Simplex   iterations: 706
Objective value     :  4.3500000000e+03
HiGHS run time      :          0.03
┌ Info: Interface limits calculated
│   df =
│    6×3 DataFrame
│     Row │ interface  transfer_limit  sum_capacity
│         │ String     Float64         Float64?
│    ─────┼─────────────────────────────────────────
│       1 │ 1_3                 500.0         500.0
│      ⋮  │     ⋮            ⋮              ⋮
│       6 │ 3_2                 500.0         500.0
└                                     4 rows omitted
…
Solving the presolved LP
Using EKK dual simplex solver - serial
  Iteration        Objective     Infeasibilities num(sum)
          0    -4.3501483614e+03 Pr: 83544(21371.6); Du: 0(3.5465e-09) 0s
      20469    -4.3501161239e+03 Pr: 67221(594593); Du: 0(1.70483e-06) 5s
      53855    -3.6281666180e+03 Pr: 33777(15917.3); Du: 0(4.40279e-07) 10s
      84487    -3.4112624969e+03 Pr: 0(0); Du: 0(1.23329e-10) 12s
Solving the original LP from the solution after postsolve
Model   status      : Optimal
Simplex   iterations: 84487
Objective value     :  3.4112624969e+03
HiGHS run time      :         12.25
┌ Info: Interface limits calculated
│   df =
│    6×3 DataFrame
│     Row │ interface  transfer_limit  sum_capacity
│         │ String     Float64         Float64?
│    ─────┼─────────────────────────────────────────
│       1 │ 1_3               491.993         500.0
│      ⋮  │     ⋮            ⋮              ⋮
│       6 │ 3_2               489.511         500.0
└                                     4 rows omitted
…
